<?xml version="1.0" encoding="UTF-8"?>
<!DOCTYPE svg PUBLIC "-//W3C//DTD SVG 1.1//EN" "http://www.w3.org/Graphics/SVG/1.1/DTD/svg11.dtd">
<!-- Creator: CorelDRAW 2019 (64-Bit) -->
<svg xmlns="http://www.w3.org/2000/svg" xml:space="preserve" width="0.25161in" height="0.254213in" version="1.1" style="shape-rendering:geometricPrecision; text-rendering:geometricPrecision; image-rendering:optimizeQuality; fill-rule:evenodd; clip-rule:evenodd"
viewBox="0 0 13.13 13.27"
 xmlns:xlink="http://www.w3.org/1999/xlink"
 xmlns:xodm="http://www.corel.com/coreldraw/odm/2003">
 <defs>
  <style type="text/css">
   <![CDATA[
    .fil0 {fill:yellow}
   ]]>
  </style>
 </defs>
 <g id="Layer_x0020_1">
  <metadata id="CorelCorpID_0Corel-Layer"/>
  <g id="_1475587264">
   <path class="fil0" d="M6.62 10.62c-0.04,0.57 -0.01,1.26 -0.01,1.85 -0,0.9 0.06,0.79 1.1,0.79 1.24,0 2.48,0 3.72,0 1.1,0 1.2,0.12 1.19,-0.66l-0 -3.72c-0,-0.58 -0.04,-1.3 0.01,-1.86 0.28,-0.02 0.55,-0.1 0.48,-0.44 -0.06,-0.31 -0.36,-0.28 -0.68,-0.29 0,0.56 0,1.11 0,1.67 0,0.6 -0.1,0.92 -0.77,0.89 -0,0.55 0.12,1.09 -0.29,1.33 -0.29,0.17 -0.88,0.1 -0.89,-0.57 -0.03,-1.07 -0.02,-2.25 0,-3.32l-0.25 0c0.09,0.31 0.15,0.54 -0.07,0.79 -0.35,0.41 -0.22,-0.03 -0.88,0.64 -0.09,0.09 -0.16,0.16 -0.25,0.25 -0.17,0.17 -0.34,0.34 -0.5,0.52l-0.99 1.02c-0.19,0.19 -0.44,0.38 -0.49,0.53 -0.13,0.44 -0.14,0.36 -0.45,0.59z"/>
   <path class="fil0" d="M3.18 3.42l-0.46 0.54c0.06,0.12 0.2,0.21 0.29,0.29 0.14,0.12 0.18,0.16 0.32,0.31 0.11,0.12 0.22,0.19 0.34,0.29 0.28,0.26 1.44,1.39 1.61,1.49 0.25,-0.26 0.53,-0.43 0.47,-0.67 -0.38,-1.41 0.36,-1.9 1.35,-2.7 0.32,-0.26 0.7,-0.59 0.93,-0.92 0.13,-0.18 0.84,-1.36 0.84,-1.59 0.01,-0.24 -0.35,-0.59 -0.65,-0.42 -2.43,1.33 -2.04,1.99 -3.11,2.99 -0.7,0.64 -1.21,0.48 -1.91,0.39z"/>
   <path class="fil0" d="M-0 6.2c0.08,0.12 0.19,0.29 0.3,0.4 0.14,-0.02 0.23,-0.09 0.35,-0.16 -0.09,0.08 -0.22,0.16 -0.28,0.26l0.08 0.1c0.18,-0.05 0.29,-0.17 0.47,-0.23l-0.35 0.3c0.05,0.11 0.24,0.3 0.33,0.39 0.1,0.1 0.31,0.26 0.38,0.35 0.1,-0.07 0.13,-0.1 0.23,-0.2 0.09,-0.09 0.15,-0.17 0.26,-0.22 -0.09,0.18 -0.31,0.39 -0.36,0.53l0.21 0.21c0.18,-0.09 0.31,-0.24 0.43,-0.37 -0.09,0.18 -0.22,0.31 -0.3,0.5 0.1,0.07 0.29,0.25 0.4,0.31 0.12,-0.06 0.24,-0.18 0.36,-0.27l-0.28 0.36 0.62 0.5c0.04,-0.04 0.09,-0.09 0.13,-0.13l-0.07 0.17c0.07,0.04 0.13,0.07 0.23,0.11 0.11,-0.12 0.17,-0.31 0.26,-0.44 0.17,-0.25 0.81,-1.15 0.84,-1.26 -0.23,-0.12 -0.43,-0.39 -0.65,-0.57 -0.23,-0.19 -0.41,-0.4 -0.63,-0.59l-1.27 -1.18c-0.52,0.39 -0.96,0.76 -1.56,1.06l-0.12 0.08z"/>
   <path class="fil0" d="M11.46 8.4l0.11 0.11c0.13,0.13 0.3,0.15 0.46,0.07 0.2,-0.11 0.2,-0.34 0.2,-0.63 -0,-0.55 -0.01,-1.11 0,-1.66l-1.52 -0c0.02,1.01 0,2.04 0,3.05 -0,0.26 -0.03,0.49 0.14,0.62 0.17,0.13 0.42,0.07 0.53,-0.08 0.14,-0.2 0.07,-1.15 0.07,-1.47z"/>
   <path class="fil0" d="M3.86 8.25c-0.13,0.15 -0.25,0.37 -0.36,0.55 -0.09,0.15 -0.25,0.52 -0.33,0.61 -0.25,-0.14 -0.43,-0.29 -0.65,-0.46 -0.21,-0.16 -0.4,-0.32 -0.6,-0.49l-1.15 -1c0.47,0.5 1.18,1.38 1.47,1.99 0.68,1.42 -0.67,1.91 -0.03,2.73 0.36,0.46 0.96,0.36 1.22,0.07 0.37,-0.4 0.19,-0.82 0,-1.3 -0.33,-0.82 -0.19,-1.23 0.16,-2.1 0.07,-0.17 0.22,-0.46 0.26,-0.63z"/>
   <path class="fil0" d="M6.61 7.02l0 1.92c0.21,-0.15 1.95,-1.97 2.19,-2.2 0.15,-0.14 0.13,-0.2 0.21,-0.45 -0.67,0.02 -1.35,0 -2.02,0 -0.32,0 -0.72,-0.06 -0.84,0.2 -0.06,0.14 -0.03,0.3 0.06,0.4 0.11,0.12 0.21,0.1 0.4,0.13z"/>
   <path class="fil0" d="M9.53 6.26c-0.14,0.04 -0.23,0.1 -0.28,0.23 -0.11,0.32 0.16,0.1 -0.4,0.63l-1.28 1.29c-0.16,0.18 -0.33,0.34 -0.5,0.52 -0.11,0.11 -0.5,0.56 -0.65,0.61 -0.07,0.03 -0.12,0.01 -0.21,0.04 -0.44,0.17 -0.24,0.9 0.26,0.76 0.11,-0.03 0.23,-0.15 0.26,-0.23 0.1,-0.27 -0.06,-0.16 0.16,-0.37l0.75 -0.77c0.09,-0.09 0.19,-0.16 0.27,-0.25 0.19,-0.21 0.33,-0.35 0.51,-0.52l1 -1.04c0.18,-0.2 0.12,-0.06 0.35,-0.14 0.12,-0.04 0.21,-0.15 0.24,-0.29 0.05,-0.31 -0.19,-0.54 -0.49,-0.46z"/>
  </g>
 </g>
</svg>
