<?xml version="1.0" encoding="UTF-8"?>
<!DOCTYPE svg PUBLIC "-//W3C//DTD SVG 1.1//EN" "http://www.w3.org/Graphics/SVG/1.1/DTD/svg11.dtd">
<!-- Creator: CorelDRAW 2019 (64-Bit) -->
<svg xmlns="http://www.w3.org/2000/svg" xml:space="preserve" width="0.857091in" height="0.774717in" version="1.1" style="shape-rendering:geometricPrecision; text-rendering:geometricPrecision; image-rendering:optimizeQuality; fill-rule:evenodd; clip-rule:evenodd"
viewBox="0 0 57.33 51.82"
 xmlns:xlink="http://www.w3.org/1999/xlink"
 xmlns:xodm="http://www.corel.com/coreldraw/odm/2003">
 <defs>
  <font id="FontID0" horiz-adv-x="666" font-variant="normal" style="fill-rule:nonzero" font-style="normal" font-weight="400">
	<font-face 
		font-family="Arial">
		<font-face-src>
			<font-face-name name="Arial"/>
		</font-face-src>
	</font-face>
   <missing-glyph><path d="M0 0z"/></missing-glyph>
   <glyph unicode="*" horiz-adv-x="389" d="M31.0073 585.005l22.3196 69.0021c51.6736,-18.1708 89.0133,-33.846 112.503,-47.166 -6.1609,58.6611 -9.49871,99.1515 -9.82625,121.159l70.9985 0c-0.998222,-32.1615 -4.66357,-72.3399 -11.3392,-120.66 33.5028,16.8294 71.8408,32.489 114.998,46.6669l22.3352 -69.0021c-41.1611,-13.6788 -81.4955,-22.8343 -121.159,-27.3419 19.8241,-17.1569 47.6651,-47.9926 83.6635,-92.164l-58.3336 -41.5042c-18.8258,25.673 -41.1611,60.6732 -66.8341,104.844 -24.1601,-45.8402 -45.3255,-80.8404 -63.4963,-104.844l-57.3354 41.5042c37.4957,46.4953 64.4945,77.175 80.6688,92.164 -41.8317,8.17294 -81.5111,17.3441 -119.163,27.3419z"/>
   <glyph unicode="_" horiz-adv-x="556" d="M-15.0045 -199.005l0 62.9972 582.01 0 0 -62.9972 -582.01 0z"/>
  </font>
  <style type="text/css">
   <![CDATA[
    @font-face { font-family:"Arial";font-variant:normal;font-style:normal;font-weight:normal;src:url("#FontID0") format(svg)}
    .str0 {stroke:#174491;stroke-width:0.89;stroke-miterlimit:2.61313}
    .fil3 {fill:black}
    .fil4 {fill:#00DB6F}
    .fil2 {fill:white}
    .fil0 {fill:url(#id0)}
    .fil1 {fill:url(#id1)}
    .fnt0 {font-weight:normal;font-size:16.88px;font-family:'Arial'}
   ]]>
  </style>
  <linearGradient id="id0" gradientUnits="userSpaceOnUse" x1="16.45" y1="41.74" x2="44.88" y2="25.58">
   <stop offset="0" style="stop-opacity:1; stop-color:#D4A80B"/>
   <stop offset="0.701961" style="stop-opacity:1; stop-color:#FFF29C"/>
   <stop offset="1" style="stop-opacity:1; stop-color:#FFE500"/>
  </linearGradient>
  <linearGradient id="id1" gradientUnits="userSpaceOnUse" x1="11.5" y1="17.78" x2="43.21" y2="6.48">
   <stop offset="0" style="stop-opacity:1; stop-color:#999999"/>
   <stop offset="0.611765" style="stop-opacity:1; stop-color:white"/>
   <stop offset="1" style="stop-opacity:1; stop-color:#D4D4D4"/>
  </linearGradient>
 </defs>
 <g id="Layer_x0020_1">
  <metadata id="CorelCorpID_0Corel-Layer"/>
  <path class="fil0" d="M48.11 22.49l-37.95 0.02c0.32,9.57 -1.59,20.47 9.5,26.75 8.77,4.97 19.3,2.53 25.15,-5.78 4.26,-6.04 3.06,-13.03 3.3,-20.99zm-19.95 4.99c-3.28,0.75 -5.63,4.99 -3.06,7.92 1.02,1.17 1,0.18 1.02,2.18 0.01,1.41 -0.69,7.26 3.99,5.89 1.89,-0.55 2.12,-2.22 2.09,-4.51 -0.06,-4.43 0.7,-2.03 1.69,-4.79 1.33,-3.73 -1.91,-7.56 -5.72,-6.69z"/>
  <path class="fil1" d="M11.55 18.74l6.33 0.03c0.26,-4.19 -0.5,-6.9 1.97,-9.76 2.36,-2.73 4.87,-2.57 9.28,-2.57 4.32,-0 6.7,-0.29 9.15,2.43 2.62,2.91 1.79,5.53 2.11,9.86l6.32 0.04c0.48,-6.44 -0.48,-10.61 -3.7,-14.35 -3.58,-4.15 -8.54,-4.42 -13.87,-4.42 -5.25,0 -10.35,0.3 -13.88,4.41 -3.29,3.84 -4.09,7.86 -3.7,14.33z"/>
  <rect class="fil2 str0" x="0.45" y="33.1" width="56.44" height="12.26" rx="1.46" ry="1.46"/>
  <text x="3.55" y="48.86"  class="fil3 fnt0">****</text>
  <g transform="matrix(0.421975 0 0 1 210.843 -87.8772)">
   <text x="-428.55" y="126.65"  class="fil3 fnt0">_</text>
  </g>
  <g transform="matrix(0.421975 0 0 1 216.068 -87.8772)">
   <text x="-428.55" y="126.65"  class="fil3 fnt0">_</text>
  </g>
  <g transform="matrix(0.421975 0 0 1 221.294 -87.8772)">
   <text x="-428.55" y="126.65"  class="fil3 fnt0">_</text>
  </g>
  <g id="_1267000000">
   <path class="fil4" d="M47.47 28.37c-1.36,0.08 -2.34,0.72 -2.99,1.39 -0.78,0.81 -1.25,2.06 -1.18,3.22 0.04,0.67 0.21,1.23 0.46,1.73 0.26,0.52 0.54,0.87 0.94,1.26 1.22,1.18 3.23,1.57 4.95,0.71 0.42,-0.21 0.64,-0.39 0.97,-0.66 0.1,-0.08 0.18,-0.19 0.28,-0.27 0.32,-0.3 0.69,-0.92 0.85,-1.33 0.48,-1.17 0.42,-2.5 -0.14,-3.62 -0.48,-0.96 -1.29,-1.71 -2.28,-2.11 -0.52,-0.21 -1.21,-0.35 -1.87,-0.32z"/>
   <path class="fil2" d="M46.95 33.75c-0.18,-0.18 -0.79,-0.81 -0.95,-0.95 -0.22,-0.2 -0.41,0.06 -0.59,0.25 -0.05,0.05 -0.12,0.11 -0.16,0.17 -0.13,0.19 0.07,0.35 0.14,0.42l1.28 1.28c0.08,0.08 0.23,0.23 0.42,0.22 0.19,-0.01 0.28,-0.17 0.36,-0.29 0.35,-0.51 0.69,-1 1.03,-1.52 0.17,-0.26 0.34,-0.5 0.51,-0.76 0.17,-0.26 0.34,-0.51 0.52,-0.77 0.08,-0.12 0.17,-0.25 0.26,-0.38 0.09,-0.13 0.21,-0.28 0.06,-0.45 -0.04,-0.05 -0.12,-0.09 -0.18,-0.13 -0.07,-0.05 -0.13,-0.09 -0.19,-0.13 -0.38,-0.26 -0.44,0 -0.7,0.39l-1.81 2.66z"/>
  </g>
 </g>
</svg>
