<?xml version="1.0" encoding="UTF-8"?>
<!DOCTYPE svg PUBLIC "-//W3C//DTD SVG 1.1//EN" "http://www.w3.org/Graphics/SVG/1.1/DTD/svg11.dtd">
<!-- Creator: CorelDRAW 2019 (64-Bit) -->
<svg xmlns="http://www.w3.org/2000/svg" xml:space="preserve" width="0.368335in" height="0.817606in" version="1.1" style="shape-rendering:geometricPrecision; text-rendering:geometricPrecision; image-rendering:optimizeQuality; fill-rule:evenodd; clip-rule:evenodd"
viewBox="0 0 39.31 87.25"
 xmlns:xlink="http://www.w3.org/1999/xlink"
 xmlns:xodm="http://www.corel.com/coreldraw/odm/2003">
 <defs>
  <style type="text/css">
   <![CDATA[
    .str1 {stroke:white;stroke-width:0.99;stroke-miterlimit:2.61313;stroke-opacity:0.800000}
    .str0 {stroke:white;stroke-width:1.12;stroke-miterlimit:2.61313;stroke-opacity:0.800000}
    .str2 {stroke:#E6E6E6;stroke-width:0.74;stroke-miterlimit:2.61313}
    .fil3 {fill:none}
    .fil2 {fill:none}
    .fil4 {fill:#F2F2F2}
    .fil1 {fill:#CCCCCC;fill-opacity:0.501961}
    .fil0 {fill:white;fill-opacity:0.921569}
   ]]>
  </style>
   <clipPath id="id0">
    <path d="M19.65 0.37c8.75,0 15.85,7.1 15.85,15.85 0,8.75 -7.1,15.85 -15.85,15.85 -8.75,0 -15.85,-7.1 -15.85,-15.85 0,-8.75 7.1,-15.85 15.85,-15.85z"/>
   </clipPath>
   <clipPath id="id1">
    <path d="M19.65 0.37c8.75,0 15.85,7.1 15.85,15.85 0,8.75 -7.1,15.85 -15.85,15.85 -8.75,0 -15.85,-7.1 -15.85,-15.85 0,-8.75 7.1,-15.85 15.85,-15.85z"/>
   </clipPath>
 </defs>
 <g id="Layer_x0020_1">
  <metadata id="CorelCorpID_0Corel-Layer"/>
  <g style="clip-path:url(#id0)">
   <polygon class="fil0" points="3.8,0.37 35.5,0.37 35.5,32.07 3.8,32.07 "/>
  </g>
  <g style="clip-path:url(#id1)">
   <g id="_730563072">
    <polygon id="1" class="fil1" points="3.14,-0.83 36.16,-0.83 36.16,32.19 3.14,32.19 "/>
    <g>
     <path class="fil2 str0" d="M19.65 15.35c4.22,0 7.65,3.41 7.67,7.63l-15.34 0c0.02,-4.22 3.45,-7.63 7.67,-7.63z"/>
     <path class="fil2 str1" d="M19.65 5.69c2.18,0 3.95,1.77 3.95,3.95 0,2.18 -1.77,3.95 -3.95,3.95 -2.18,0 -3.95,-1.77 -3.95,-3.95 0,-2.18 1.77,-3.95 3.95,-3.95z"/>
    </g>
   </g>
  </g>
  <path class="fil3 str2" d="M19.65 0.37c8.75,0 15.85,7.1 15.85,15.85 0,8.75 -7.1,15.85 -15.85,15.85 -8.75,0 -15.85,-7.1 -15.85,-15.85 0,-8.75 7.1,-15.85 15.85,-15.85z"/>
  <g id="_730562496">
   <rect class="fil4" y="39.05" width="39.31" height="4.12" rx="2.06" ry="2.06"/>
   <rect class="fil4" x="5.1" y="45.23" width="29.12" height="4.12" rx="1.53" ry="2.06"/>
   <rect class="fil4" x="10.43" y="51.42" width="18.44" height="4.12" rx="0.97" ry="2.06"/>
  </g>
  <g id="_856539392">
   <rect class="fil4" x="10.43" y="65.51" width="18.44" height="4.12" rx="0.97" ry="2.06"/>
   <rect class="fil4" x="17.47" y="60.18" width="4.37" height="4.12" rx="0.23" ry="2.06"/>
  </g>
  <g id="_856540224">
   <rect class="fil4" x="10.43" y="83.12" width="18.44" height="4.12" rx="0.97" ry="2.06"/>
   <rect class="fil4" x="17.47" y="77.79" width="4.37" height="4.12" rx="0.23" ry="2.06"/>
  </g>
 </g>
</svg>
