<svg xmlns="http://www.w3.org/2000/svg" viewBox="0 0 39.621 49.839">
  <defs>
    <style>
      .cls-1 {
        fill: #2f3038;
      }

      .cls-1, .cls-2, .cls-3, .cls-4 {
        stroke: #000;
        stroke-miterlimit: 10;
      }

      .cls-2 {
        fill: #ff97f7;
      }

      .cls-3 {
        fill: #ffeba9;
      }

      .cls-4 {
        fill: none;
        stroke-linecap: round;
      }
    </style>
  </defs>
  <g id="Group_442" data-name="Group 442" transform="translate(0 0.062)">
    <path id="Path_44" data-name="Path 44" class="cls-1" d="M18.643,34.843,15,50.092a40.687,40.687,0,0,0,29.4,0s-1.773-7.544-4.481-15.248S21.383,28.557,18.643,34.843Z" transform="translate(-9.826 -19.737)"/>
    <path id="Path_45" data-name="Path 45" class="cls-2" d="M39.12,120.729H.5v-2.257A12.589,12.589,0,0,1,13.073,105.9H26.548A12.589,12.589,0,0,1,39.12,118.473Z" transform="translate(0 -71.451)"/>
    <circle id="Ellipse_36" data-name="Ellipse 36" class="cls-3" cx="2.643" cy="2.643" r="2.643" transform="translate(28.385 15.106)"/>
    <path id="Path_46" data-name="Path 46" class="cls-3" d="M55.218,97.521h0A2.435,2.435,0,0,1,52.8,95.1V90.3h4.836v4.8A2.415,2.415,0,0,1,55.218,97.521Z" transform="translate(-35.44 -60.88)"/>
    <circle id="Ellipse_37" data-name="Ellipse 37" class="cls-3" cx="2.643" cy="2.643" r="2.643" transform="translate(6.142 15.106)"/>
    <path id="Path_47" data-name="Path 47" class="cls-3" d="M37.322,40.737h0A11.123,11.123,0,0,1,26.2,29.615V24.522A11.123,11.123,0,0,1,37.322,13.4h0A11.123,11.123,0,0,1,48.444,24.522v5.126A11.1,11.1,0,0,1,37.322,40.737Z" transform="translate(-17.415 -8.771)"/>
    <circle id="Ellipse_38" data-name="Ellipse 38" cx="1.354" cy="1.354" r="1.354" transform="translate(12.654 15.59)"/>
    <circle id="Ellipse_39" data-name="Ellipse 39" cx="1.354" cy="1.354" r="1.354" transform="translate(24.388 15.59)"/>
    <path id="Path_48" data-name="Path 48" class="cls-4" d="M52.8,80.6q2.708,1.838,4.836,0" transform="translate(-35.44 -54.307)"/>
    <path id="Path_49" data-name="Path 49" class="cls-1" d="M26,15.106S23.262-2.818,41.863.986c0,0,2.192,7.8-6.867,10.123S26.324,15.3,26,15.106Z" transform="translate(-17.184 0)"/>
    <path id="Path_50" data-name="Path 50" class="cls-1" d="M74.007,2.2S70.3,12.613,80.422,16.32C80.422,16.288,83.453,5.134,74.007,2.2Z" transform="translate(-49.361 -1.182)"/>
  </g>
</svg>
