<?xml version="1.0" encoding="UTF-8"?>
<!DOCTYPE svg PUBLIC "-//W3C//DTD SVG 1.1//EN" "http://www.w3.org/Graphics/SVG/1.1/DTD/svg11.dtd">
<!-- Creator: CorelDRAW 2019 (64-Bit) -->
<svg xmlns="http://www.w3.org/2000/svg" xml:space="preserve" width="0.2in" height="0.200008in" version="1.1" style="shape-rendering:geometricPrecision; text-rendering:geometricPrecision; image-rendering:optimizeQuality; fill-rule:evenodd; clip-rule:evenodd"
viewBox="0 0 11.31 11.31"
 xmlns:xlink="http://www.w3.org/1999/xlink"
 xmlns:xodm="http://www.corel.com/coreldraw/odm/2003">
 <defs>
  <style type="text/css">
   <![CDATA[
    .fil3 {fill:#493D62;fill-rule:nonzero}
    .fil1 {fill:#E6CA31;fill-rule:nonzero}
    .fil0 {fill:#F6E141;fill-rule:nonzero}
    .fil2 {fill:white;fill-rule:nonzero}
   ]]>
  </style>
 </defs>
 <g id="Layer_x0020_1">
  <metadata id="CorelCorpID_0Corel-Layer"/>
  <g id="_1035422240">
   <g>
    <path class="fil0" d="M11.31 5.66c0,-3.12 -2.53,-5.65 -5.65,-5.65 -3.12,0 -5.65,2.53 -5.65,5.65 0,3.12 2.53,5.65 5.65,5.65 3.12,0 5.65,-2.53 5.65,-5.65z"/>
    <path class="fil1" d="M11.31 5.66c0,-0.88 -0.2,-1.71 -0.56,-2.46 -0.19,1.87 -0.49,3.53 -2.22,5.22 -1.72,1.68 -4.42,1.77 -7.58,0.37 1.01,1.52 2.74,2.52 4.71,2.52 3.12,0 5.65,-2.53 5.65,-5.65z"/>
    <g>
     <path class="fil2" d="M2.39 4.09c-0.1,0.2 -0.34,0.29 -0.54,0.19 -0.2,-0.1 -0.29,-0.34 -0.19,-0.54l0.73 0.35zm3.26 -2.87l0 0.81 -0.13 0 -0.13 0.01 -0.13 0.01 -0.13 0.02 -0.13 0.02 -0.13 0.03 -0.12 0.03 -0.12 0.03 -0.12 0.04 -0.12 0.04 -0.12 0.05 -0.12 0.05 -0.11 0.05 -0.11 0.06 -0.11 0.06 -0.11 0.07 -0.1 0.07 -0.1 0.07 -0.1 0.08 -0.1 0.08 -0.09 0.08 -0.09 0.09 -0.09 0.09 -0.08 0.09 -0.08 0.1 -0.08 0.1 -0.07 0.1 -0.07 0.1 -0.07 0.11 -0.06 0.11 -0.06 0.11 -0.06 0.11 -0.73 -0.35 0.07 -0.14 0.07 -0.14 0.08 -0.13 0.08 -0.13 0.09 -0.13 0.09 -0.12 0.1 -0.12 0.1 -0.12 0.1 -0.11 0.11 -0.11 0.11 -0.11 0.11 -0.1 0.12 -0.1 0.12 -0.09 0.12 -0.09 0.13 -0.09 0.13 -0.08 0.13 -0.08 0.14 -0.07 0.14 -0.07 0.14 -0.06 0.14 -0.06 0.15 -0.05 0.15 -0.05 0.15 -0.04 0.15 -0.04 0.16 -0.03 0.16 -0.03 0.16 -0.02 0.16 -0.01 0.16 -0.01 0.16 -0zm0 0c0.22,0 0.41,0.18 0.41,0.41 0,0.22 -0.18,0.41 -0.41,0.41l0 -0.81z"/>
    </g>
   </g>
   <g id="_1035434080">
    <g>
     <path class="fil3" d="M7.06 7.27c0.1,-0.2 0.35,-0.28 0.55,-0.18 0.2,0.1 0.28,0.35 0.18,0.55l-0.73 -0.37zm-1.43 1.44l0 -0.81 0 0 0.11 -0 0.1 -0.01 0.1 -0.01 0.09 -0.01 0.09 -0.02 0.08 -0.02 0.08 -0.02 0.07 -0.02 0.07 -0.02 0.06 -0.03 0.06 -0.03 0.06 -0.03 0.05 -0.03 0.05 -0.03 0.05 -0.03 0.04 -0.03 0.04 -0.03 0.04 -0.03 0.03 -0.03 0.03 -0.03 0.03 -0.03 0.02 -0.03 0.02 -0.02 0.02 -0.02 0.01 -0.02 0.01 -0.02 0.01 -0.01 0.01 -0.01 0.01 -0.01 0 -0 -0 0 -0 0.01 0.73 0.37 -0.01 0.01 -0.01 0.02 -0.01 0.02 -0.01 0.02 -0.02 0.03 -0.02 0.03 -0.02 0.03 -0.03 0.04 -0.03 0.04 -0.04 0.04 -0.04 0.04 -0.04 0.05 -0.05 0.05 -0.05 0.05 -0.06 0.05 -0.06 0.05 -0.07 0.05 -0.07 0.05 -0.08 0.05 -0.08 0.05 -0.09 0.04 -0.09 0.04 -0.1 0.04 -0.1 0.04 -0.11 0.03 -0.11 0.03 -0.12 0.03 -0.12 0.02 -0.13 0.02 -0.13 0.01 -0.14 0.01 -0.14 0 0 0zm0 0c-0.22,0 -0.41,-0.18 -0.41,-0.41 0,-0.22 0.18,-0.41 0.41,-0.41l0 0.81zm-2.16 -1.07l0.73 -0.37 -0 -0.01 -0 -0 0 0 0.01 0.01 0.01 0.01 0.01 0.01 0.01 0.02 0.01 0.02 0.02 0.02 0.02 0.02 0.02 0.03 0.03 0.03 0.03 0.03 0.03 0.03 0.04 0.03 0.04 0.03 0.04 0.03 0.05 0.03 0.05 0.03 0.05 0.03 0.06 0.03 0.06 0.03 0.06 0.03 0.07 0.02 0.07 0.02 0.08 0.02 0.08 0.02 0.09 0.02 0.09 0.01 0.1 0.01 0.1 0.01 0.11 0 0 0.81 -0.14 -0 -0.14 -0.01 -0.13 -0.01 -0.13 -0.02 -0.12 -0.02 -0.12 -0.03 -0.11 -0.03 -0.11 -0.03 -0.1 -0.04 -0.1 -0.04 -0.09 -0.04 -0.09 -0.04 -0.08 -0.05 -0.08 -0.05 -0.07 -0.05 -0.07 -0.05 -0.06 -0.05 -0.06 -0.05 -0.05 -0.05 -0.05 -0.05 -0.04 -0.05 -0.04 -0.04 -0.04 -0.04 -0.03 -0.04 -0.03 -0.04 -0.02 -0.03 -0.02 -0.03 -0.02 -0.03 -0.01 -0.02 -0.01 -0.02 -0.01 -0.02 -0.01 -0.01zm0 0c-0.1,-0.2 -0.02,-0.45 0.18,-0.55 0.2,-0.1 0.45,-0.02 0.55,0.18l-0.73 0.37z"/>
    </g>
    <g id="_1059656944">
     <path class="fil3" d="M5.65 0.81c2.67,0 4.84,2.17 4.84,4.84 0,2.67 -2.17,4.84 -4.84,4.84 -2.67,0 -4.84,-2.17 -4.84,-4.84 0,-2.67 2.17,-4.84 4.84,-4.84zm0 -0.81l0 0c-3.12,0 -5.65,2.53 -5.65,5.65 0,3.12 2.53,5.65 5.65,5.65 3.12,0 5.65,-2.53 5.65,-5.65 0,-3.12 -2.53,-5.65 -5.65,-5.65z"/>
    </g>
    <g>
     <path class="fil3" d="M3.08 5.62c-0.16,0.16 -0.42,0.16 -0.58,0 -0.16,-0.16 -0.16,-0.42 0,-0.58l0.58 0.58zm0.4 -0.4l-0.4 0.4 -0.58 -0.58 0.4 -0.4 0.58 0.58zm-0.58 -0.58c0.16,-0.16 0.42,-0.16 0.58,0 0.16,0.16 0.16,0.42 0,0.58l-0.58 -0.58z"/>
    </g>
    <g>
     <path class="fil3" d="M3.48 5.22c-0.16,0.16 -0.42,0.16 -0.58,0 -0.16,-0.16 -0.16,-0.42 0,-0.58l0.58 0.58zm0.84 -0.58l-0.58 0.58 -0.01 -0.01 -0.01 -0.01 -0.01 -0 -0.01 -0.01 -0.01 -0.01 -0.01 -0 -0.01 -0 -0.01 -0 -0.01 -0 -0.01 -0 -0.01 -0 -0.01 -0 -0.01 -0 -0.01 -0 -0.01 -0 -0.01 -0 -0.01 0 -0.01 0 -0.01 0 -0.01 0 -0.01 0 -0.01 0 -0.01 0 -0.01 0 -0.01 0 -0.01 0 -0.01 0 -0.01 0.01 -0.01 0.01 -0.01 0 -0.01 0.01 -0.01 0.01 -0.58 -0.58 0.04 -0.03 0.04 -0.03 0.04 -0.03 0.04 -0.03 0.04 -0.03 0.04 -0.02 0.04 -0.02 0.04 -0.02 0.04 -0.02 0.05 -0.01 0.05 -0.01 0.05 -0.01 0.05 -0.01 0.05 -0.01 0.05 -0 0.05 -0 0.05 0 0.05 0 0.05 0.01 0.05 0.01 0.05 0.01 0.05 0.01 0.05 0.01 0.04 0.02 0.04 0.02 0.04 0.02 0.04 0.02 0.04 0.03 0.04 0.03 0.04 0.03 0.04 0.03 0.04 0.03zm0 0c0.16,0.16 0.16,0.42 0,0.58 -0.16,0.16 -0.42,0.16 -0.58,0l0.58 -0.58z"/>
    </g>
    <g>
     <path class="fil3" d="M3.75 5.22c-0.16,-0.16 -0.16,-0.42 -0,-0.58 0.16,-0.16 0.42,-0.16 0.58,-0l-0.58 0.58zm0.37 0.37l-0.37 -0.37 0.58 -0.58 0.37 0.37 -0.58 0.58zm0.58 -0.58c0.16,0.16 0.16,0.42 0,0.58 -0.16,0.16 -0.42,0.16 -0.58,0l0.58 -0.58z"/>
    </g>
    <g>
     <path class="fil3" d="M8.8 5.04c0.16,0.16 0.16,0.42 0,0.58 -0.16,0.16 -0.42,0.16 -0.58,0l0.58 -0.58zm-0.4 -0.4l0.4 0.4 -0.58 0.58 -0.4 -0.4 0.58 -0.58zm-0.58 0.58c-0.16,-0.16 -0.16,-0.42 0,-0.58 0.16,-0.16 0.42,-0.16 0.58,0l-0.58 0.58z"/>
    </g>
    <g>
     <path class="fil3" d="M8.41 4.65c0.16,0.16 0.16,0.42 0,0.58 -0.16,0.16 -0.42,0.16 -0.58,0l0.58 -0.58zm-0.84 0.58l-0.58 -0.58 0.04 -0.03 0.04 -0.03 0.04 -0.03 0.04 -0.03 0.04 -0.03 0.04 -0.02 0.04 -0.02 0.04 -0.02 0.04 -0.02 0.05 -0.01 0.05 -0.01 0.05 -0.01 0.05 -0.01 0.05 -0.01 0.05 -0 0.05 -0 0.05 0 0.05 0 0.05 0.01 0.05 0.01 0.05 0.01 0.05 0.01 0.05 0.01 0.04 0.02 0.04 0.02 0.04 0.02 0.05 0.02 0.04 0.03 0.04 0.03 0.04 0.03 0.04 0.03 0.04 0.04 -0.58 0.58 -0.01 -0.01 -0.01 -0.01 -0.01 -0.01 -0.01 -0.01 -0.01 -0 -0.01 -0 -0.01 -0 -0.01 -0 -0.01 -0 -0.01 -0 -0.01 -0 -0.01 -0 -0.01 -0 -0.01 -0 -0.01 -0 -0.01 -0 -0.01 0 -0.01 0 -0.01 0 -0.01 0 -0.01 0 -0.01 0 -0.01 0 -0.01 0 -0.01 0 -0.01 0 -0.01 0 -0.01 0.01 -0.01 0.01 -0.01 0 -0.01 0.01 -0.01 0.01zm0 0c-0.16,0.16 -0.42,0.16 -0.58,0 -0.16,-0.16 -0.16,-0.42 0,-0.58l0.58 0.58z"/>
    </g>
    <g>
     <path class="fil3" d="M6.99 4.65c0.16,-0.16 0.42,-0.16 0.58,0 0.16,0.16 0.16,0.42 0,0.58l-0.58 -0.58zm-0.37 0.37l0.37 -0.37 0.58 0.58 -0.37 0.37 -0.58 -0.58zm0.58 0.58c-0.16,0.16 -0.42,0.16 -0.58,0 -0.16,-0.16 -0.16,-0.42 0,-0.58l0.58 0.58z"/>
    </g>
   </g>
  </g>
 </g>
</svg>
